…
Let’s find out which songs have remained at number 1 position the
longest.

``` r
(longest_top_song <- df.bb100 %>% 
  filter(week_position==1) %>% 
  count(song_id, song, performer, sort= TRUE))
```

    ## # A tibble: 1,124 x 4
    ##    song_id                                                 song  performer     n
    ##    <chr>                                                   <chr> <chr>     <int>
    ##  1 Old Town RoadLil Nas X Featuring Billy Ray Cyrus        Old ~ Lil Nas ~    19
    ##  2 DespacitoLuis Fonsi & Daddy Yankee Featuring Justin Bi~ Desp~ Luis Fon~    16
    ##  3 One Sweet DayMariah Carey & Boyz II Men                 One ~ Mariah C~    16
    ##  4 Candle In The Wind 1997/Something About The Way You Lo~ Cand~ Elton Jo~    14
    ##  5 I'll Make Love To YouBoyz II Men                        I'll~ Boyz II ~    14
    ##  6 I Gotta FeelingThe Black Eyed Peas                      I Go~ The Blac~    14
    ##  7 I Will Always Love YouWhitney Houston                   I Wi~ Whitney ~    14
    ##  8 Macarena (Bayside Boys Mix)Los Del Rio                  Maca~ Los Del ~    14
    ##  9 Uptown Funk!Mark Ronson Featuring Bruno Mars            Upto~ Mark Ron~    14
    ## 10 We Belong TogetherMariah Carey                          We B~ Mariah C~    14
    ## # ... with 1,114 more rows
…
(by_performer <- df.bb100 %>% 
  group_by(performer) %>% 
  summarize_songs())
```

    ## # A tibble: 10,061 x 5
    ##    performer   total_weeks_on_~ total_weeks_at_~ n_songs_top100 n_songs_at_numb~
    ##    <chr>                  <int>            <int>          <int>            <int>
    ##  1 Mariah Car~              621               65             32               16
    ##  2 The Beatles              585               54             65               19
    ##  3 Boyz II Men              331               34             17                4
    ##  4 Madonna                  857               32             53               12
    ##  5 Drake                    746               31             99                5
    ##  6 Whitney Ho~              561               31             32               11
    ##  7 Michael Ja~              611               30             41               11
    ##  8 The Black ~              382               28             15                3
    ##  9 Bee Gees                 516               27             43                9
    ## 10 Adele                    301               24             13                4
    ## # ... with 10,051 more rows
…
There’s a pretty high concentration of performers within the range of 1
to 7 songs at number 1 out of 10 to 50 at top100 songs.

It is also reasonable to observe stats by decade and also see which
performer had the best numbers by each decade.

``` r
(by_performer_decade <- df.bb100 %>% 
  group_by(performer, 
           decade = 10 * year(week) %/% 10) %>% 
  summarize_songs())
```

    ## # A tibble: 12,069 x 6
    ##    performer             decade total_weeks_on_~ total_weeks_at_~ n_songs_top100
    ##    <chr>                  <dbl>            <int>            <int>          <int>
    ##  1 The Beatles             1960              478               50             56
    ##  2 Mariah Carey            1990              386               42             17
    ##  3 Boyz II Men             1990              327               34             16
    ##  4 Drake                   2010              683               29             89
    ##  5 Bee Gees                1970              333               27             23
    ##  6 The Black Eyed Peas     2000              244               26             11
    ##  7 Adele                   2010              294               24             12
    ##  8 Michael Jackson         1980              266               20             17
    ##  9 Usher                   2000              206               20             10
    ## 10 Elvis Presley With T~   1960              394               19             47
    ## # ... with 12,059 more rows, and 1 more variable: n_songs_at_number1 <int>
…
We’ll utilise XGBoost to predict log\_n\_weeks by certain stats and
characteristics found in the audio\_features data, which we’ll join
together by an inner join.

``` r
(by_song <- df.bb100 %>% 
  group_by(song_id) %>% 
  summarize(peak=max(week_position),
            week_started = min(week),
            n_weeks = n(),
            log_n_weeks = log2(n_weeks)))
```

    ## # A tibble: 29,389 x 5
    ##    song_id                                 peak week_started n_weeks log_n_weeks
    ##    <chr>                                  <dbl> <date>         <int>       <dbl>
    ##  1 '03 Bonnie & ClydeJay-Z Featuring Bey~    56 2002-10-26        23        4.52
    ##  2 '65 Love AffairPaul Davis                100 1982-02-27        20        4.32
    ##  3 '98 Thug ParadiseTragedy, Capone, Inf~    99 1998-09-19         5        2.32
    ##  4 'Round We GoBig Sister                   100 1996-04-06         2        1   
    ##  5 'til I Can Make It On My OwnTammy Wyn~   100 1976-05-01         5        2.32
    ##  6 'til It's Time To Say GoodbyeJonathan~    93 1976-01-10         9        3.17
    ##  7 'Til My Baby Comes HomeLuther Vandross    99 1985-03-16        16        4   
    ##  8 'Til Summer Comes AroundKeith Urban       94 2010-01-30        16        4   
    ##  9 'Til You Do Me RightAfter 7               71 1995-07-08        22        4.46
    ## 10 'TilThe Angels                            95 1961-10-14        15        3.91
    ## # ... with 29,379 more rows
…
