…
The natural log of listing prices closely resembles a bell curve, albeit a bit skewed to the right which would suggest comparing median prices rather than mean.   Looking at the boxplot, there seems to be a number of free listings in the data, there are also a couple of extremely expensive ones. Out of curiosity, let’s have a closer look to see if these values are reasonable or widely inaccurate due to measurement errors.

``` r
df.data %>% group_by(borough, neighborhood, room_type) %>% 
  summarise(mean(price),
            max=max(price),
            min(price),
            sd(price),
            n()) %>% 
  arrange(desc(max))
```

    ## # A tibble: 490 x 8
    ## # Groups:   borough, neighborhood [217]
    ##    borough   neighborhood room_type `mean(price)`   max `min(price)` `sd(price)`
    ##    <chr>     <chr>        <fct>             <dbl> <dbl>        <dbl>       <dbl>
    ##  1 Brooklyn  East Flatbu~ private ~          104.  7500           27        557.
    ##  2 Manhattan Midtown      entire h~          311   5100           70        322.
    ##  3 Manhattan Harlem       entire h~          184.  5000           49        242.
    ##  4 Manhattan Upper West ~ entire h~          227.  3613           65        201.
    ##  5 Manhattan SoHo         entire h~          384.  3000           76        402.
    ##  6 Manhattan Chelsea      entire h~          268.  2995           60        216.
    ##  7 Manhattan Nolita       entire h~          288.  2990           89        342.
    ##  8 Queens    Bayside      entire h~          399.  2600           55        734.
    ##  9 Brooklyn  Crown Heigh~ entire h~          168.  2500           48        149.
    ## 10 Manhattan East Village entire h~          224.  2500           59        163.
    ## # ... with 480 more rows, and 1 more variable: `n()` <int>
…
