…
``` r
df_trips %>% drop_na(start_station_name) %>% 
  group_by(member_casual) %>% 
  drop_na(start_station_name) %>%
  drop_na(end_station_name) %>% 
  count(paste(start_station_name," - ", end_station_name), sort = TRUE)
```

    ## # A tibble: 247,369 x 3
    ## # Groups:   member_casual [2]
    ##    member_casual `paste(start_station_name, " - ", end_station_name)`          n
    ##    <chr>         <chr>                                                     <int>
    ##  1 casual        Streeter Dr & Grand Ave  -  Streeter Dr & Grand Ave       11683
    ##  2 casual        Millennium Park  -  Millennium Park                        6111
    ##  3 casual        Michigan Ave & Oak St  -  Michigan Ave & Oak St            5900
    ##  4 casual        Lake Shore Dr & Monroe St  -  Lake Shore Dr & Monroe St    4669
    ##  5 member        Ellis Ave & 60th St  -  Ellis Ave & 55th St                4082
    ##  6 member        Ellis Ave & 55th St  -  Ellis Ave & 60th St                3652
    ##  7 casual        Buckingham Fountain  -  Buckingham Fountain                3445
    ##  8 casual        Streeter Dr & Grand Ave  -  Millennium Park                3309
    ##  9 casual        Theater on the Lake  -  Theater on the Lake                3219
    ## 10 casual        DuSable Lake Shore Dr & Monroe St  -  DuSable Lake Shore~  3116
    ## # ... with 247,359 more rows
…
``` r
df_trips %>% drop_na(start_station_name) %>% 
  filter(member_casual=="member") %>% 
  drop_na(start_station_name) %>%
  drop_na(end_station_name) %>% 
  count(paste(start_station_name," - ", end_station_name), sort = TRUE)
```

    ## # A tibble: 122,480 x 2
    ##    `paste(start_station_name, " - ", end_station_name)`     n
    ##    <chr>                                                <int>
    ##  1 Ellis Ave & 60th St  -  Ellis Ave & 55th St           4082
    ##  2 Ellis Ave & 55th St  -  Ellis Ave & 60th St           3652
    ##  3 Ellis Ave & 60th St  -  University Ave & 57th St      3109
    ##  4 University Ave & 57th St  -  Ellis Ave & 60th St      3010
    ##  5 Calumet Ave & 33rd St  -  State St & 33rd St          1989
    ##  6 State St & 33rd St  -  Calumet Ave & 33rd St          1954
    ##  7 Loomis St & Lexington St  -  Morgan St & Polk St      1860
    ##  8 Morgan St & Polk St  -  Loomis St & Lexington St      1653
    ##  9 MLK Jr Dr & 29th St  -  State St & 33rd St            1422
    ## 10 State St & 33rd St  -  MLK Jr Dr & 29th St            1392
    ## # ... with 122,470 more rows
…
