…
The data is in a wide, somewhat messy format, having 48 columns for each month showing the average Price/m of condominiums as values. It is probably easier to understand viewing it in a long format:

``` r
df.condos %>% pivot_longer('201710':'202109', names_to = "year_month", values_to = "price")
```

    ## # A tibble: 13,920 x 5
    ##       LK  Type Municipality   year_month  price
    ##    <dbl> <dbl> <chr>          <chr>       <dbl>
    ##  1   114     3 Upplands-Väsby 201710     35014.
    ##  2   114     3 Upplands-Väsby 201711     34921.
    ##  3   114     3 Upplands-Väsby 201712     34255.
    ##  4   114     3 Upplands-Väsby 201801     32926.
    ##  5   114     3 Upplands-Väsby 201802     32347.
    ##  6   114     3 Upplands-Väsby 201803     32660.
    ##  7   114     3 Upplands-Väsby 201804     32935.
    ##  8   114     3 Upplands-Väsby 201805     32891.
    ##  9   114     3 Upplands-Väsby 201806     32105.
    ## 10   114     3 Upplands-Väsby 201807     32522.
    ## # ... with 13,910 more rows
…
## Missing Data Imputation

Since there are municipalities with close to 100% missing values, performing listwise deletion is probably in order. However, a complete listwise deletion would waste data and compromise the accuracy and unbiasedness of it. Instead, a partial-list wise deletion would be less extreme and acceptable by just removing municipalities over a certain threshold. In this case, 50% or higher seems reasonable.

``` r
# Semi-listwise deletion 50%
delete.na <- function(BF, n=0) { # delete too many NA function
  BF[rowSums(is.na(BF)) <= n,]
}
(df.condos_partial <- df.condos %>% delete.na(24)) # no more than 24 missing values per municipality
```

    ## # A tibble: 129 x 51
    ##       LK  Type Municipality   `201710` `201711` `201712` `201801` `201802`
    ##    <dbl> <dbl> <chr>             <dbl>    <dbl>    <dbl>    <dbl>    <dbl>
    ##  1   114     3 Upplands-Väsby   35014.   34921.   34255.   32926.   32347.
    ##  2   115     2 Vallentuna       32528.   31183.   29797.   28988.   29699.
    ##  3   117     3 Österåker        34856.   35228.   35252.   33426.   31801.
    ##  4   120     2 Värmdö           42241.   41005.   41519.   40976.   41169.
    ##  5   123     3 Järfälla         36344.   36584.   37174.   37427.   36360.
    ##  6   125     2 Ekerö            38721.      NA       NA       NA       NA 
    ##  7   126     3 Huddinge         38496.   38820.   38103.   38407.   37902.
    ##  8   127     3 Botkyrka         33496.   33386.   32254.   31003.   30460.
    ##  9   128     3 Salem            30749.   30602.   30130.   28833.   28206.
    ## 10   136     3 Haninge          35606.   32872.   32195.   31156.   30713.
    ## # ... with 119 more rows, and 43 more variables: `201803` <dbl>,
    ## #   `201804` <dbl>, `201805` <dbl>, `201806` <dbl>, `201807` <dbl>,
    ## #   `201808` <dbl>, `201809` <dbl>, `201810` <dbl>, `201811` <dbl>,
    ## #   `201812` <dbl>, `201901` <dbl>, `201902` <dbl>, `201903` <dbl>,
    ## #   `201904` <dbl>, `201905` <dbl>, `201906` <dbl>, `201907` <dbl>,
    ## #   `201908` <dbl>, `201909` <dbl>, `201910` <dbl>, `201911` <dbl>,
    ## #   `201912` <dbl>, `202001` <dbl>, `202002` <dbl>, `202003` <dbl>, ...
…
